…
`ssdca` provides a data set for several chemicals including Boron.

``` r
boron_data
#> # A tibble: 28 x 5
#>    Chemical Species                  Conc Group        Units
#>    <chr>    <chr>                   <dbl> <fct>        <chr>
#>  1 Boron    Oncorhynchus mykiss      2.10 Fish         mg/L 
#>  2 Boron    Ictalurus punctatus      2.40 Fish         mg/L 
#>  3 Boron    Micropterus salmoides    4.10 Fish         mg/L 
#>  4 Boron    Brachydanio rerio       10.0  Fish         mg/L 
#>  5 Boron    Carassius auratus       15.6  Fish         mg/L 
#>  6 Boron    Pimephales promelas     18.3  Fish         mg/L 
#>  7 Boron    Daphnia magna            6.00 Invertebrate mg/L 
#>  8 Boron    Opercularia bimarginata 10.0  Invertebrate mg/L 
#>  9 Boron    Ceriodaphnia dubia      13.4  Invertebrate mg/L 
#> 10 Boron    Entosiphon sulcatum     15.0  Invertebrate mg/L 
#> # ... with 18 more rows
```
…
and the model-averaged 5% hazard concentration estimated using `ssd_hc`

``` r
ssd_hc(boron_dists)
#> # A tibble: 99 x 5
#>    percent   est    se   lcl   ucl
#>      <int> <dbl> <dbl> <dbl> <dbl>
#>  1       1 0.304 0.344 0.127  1.09
#>  2       2 0.544 0.468 0.239  1.70
#>  3       3 0.780 0.570 0.355  2.24
#>  4       4 1.01  0.660 0.478  2.74
#>  5       5 1.25  0.744 0.606  3.21
#>  6       6 1.49  0.823 0.736  3.68
#>  7       7 1.73  0.899 0.871  4.16
#>  8       8 1.97  0.972 1.01   4.61
#>  9       9 2.21  1.04  1.15   5.06
#> 10      10 2.46  1.11  1.30   5.51
#> # ... with 89 more rows
```
…
