Predict fitdists — predict.fitdists • ssdtools
…
      average
      A flag specifying whether to model average the estimates.

      ic
      A string specifying which information-theoretic criterion ('aic', 'aicc' or 'bic') to use for model averaging .

      ...
      Unused.

    Examples

predict(boron_dists)
#> # A tibble: 99 x 6
#>    percent   est    se   lcl   ucl dist   
#>      <int> <dbl> <dbl> <dbl> <dbl> <chr>  
#>  1       1 0.379    NA    NA    NA average
#>  2       2 0.624    NA    NA    NA average
#>  3       3 0.856    NA    NA    NA average
#>  4       4 1.08     NA    NA    NA average
#>  5       5 1.31     NA    NA    NA average
#>  6       6 1.53     NA    NA    NA average
#>  7       7 1.75     NA    NA    NA average
#>  8       8 1.98     NA    NA    NA average
#>  9       9 2.21     NA    NA    NA average
#> 10      10 2.44     NA    NA    NA average
#> # … with 89 more rows
…
