Predict — predict.fitdist • ssdtools
…
#>     <dbl> <dbl> <dbl> <dbl> <dbl> <chr>
#> 1       5  1.68    NA    NA    NA lnorm
#> 2      50 13.0     NA    NA    NA lnorm
predict(fluazinam_lnorm, percent = c(5L, 50L))
#> Warning: The `ci` argument of `predict()` is deprecated as of ssdtools 0.1.0.
#> In particular, the `ci` has been switched from TRUE to FALSE. To retain the previous behaviour of calculating confidence intervals set `ci = TRUE`.
#> # A tibble: 2 x 6
#>   percent    est    se   lcl   ucl dist 
#>     <dbl>  <dbl> <dbl> <dbl> <dbl> <chr>
#> 1       5   1.75    NA    NA    NA lnorm
#> 2      50 145.      NA    NA    NA lnorm
predict(boron_dists)
#> Warning: The `ci` argument of `predict()` is deprecated as of ssdtools 0.1.0.
#> In particular, the `ci` has been switched from TRUE to FALSE. To retain the previous behaviour of calculating confidence intervals set `ci = TRUE`.
#> # A tibble: 99 x 6
#>    percent   est    se   lcl   ucl dist   
#>      <int> <dbl> <dbl> <dbl> <dbl> <chr>  
#>  1       1 0.379    NA    NA    NA average
#>  2       2 0.624    NA    NA    NA average
#>  3       3 0.856    NA    NA    NA average
#>  4       4 1.08     NA    NA    NA average
#>  5       5 1.31     NA    NA    NA average
#>  6       6 1.53     NA    NA    NA average
#>  7       7 1.75     NA    NA    NA average
#>  8       8 1.98     NA    NA    NA average
#>  9       9 2.21     NA    NA    NA average
#> 10      10 2.44     NA    NA    NA average
#> # … with 89 more rows
predict(fluazinam_dists)
#> Warning: The `ci` argument of `predict()` is deprecated as of ssdtools 0.1.0.
#> In particular, the `ci` has been switched from TRUE to FALSE. To retain the previous behaviour of calculating confidence intervals set `ci = TRUE`.
#> # A tibble: 99 x 6
#>    percent   est    se   lcl   ucl dist   
#>      <int> <dbl> <dbl> <dbl> <dbl> <chr>  
#>  1       1 0.175    NA    NA    NA average
#>  2       2 0.404    NA    NA    NA average
#>  3       3 0.689    NA    NA    NA average
#>  4       4 1.03     NA    NA    NA average
#>  5       5 1.42     NA    NA    NA average
#>  6       6 1.87     NA    NA    NA average
#>  7       7 2.38     NA    NA    NA average
#>  8       8 2.94     NA    NA    NA average
#>  9       9 3.57     NA    NA    NA average
#> 10      10 4.26     NA    NA    NA average
#> # … with 89 more rows
…
