…
## Details

It is useful for plotting purposes.

## See also

[`ssd_hc()`](https://bcgov.github.io/ssdtools/reference/ssd_hc.md) and
[`ssd_plot()`](https://bcgov.github.io/ssdtools/reference/ssd_plot.md)

## Examples

``` r
fits <- ssd_fit_dists(ssddata::ccme_boron)
predict(fits)
#> # A tibble: 99 × 15
#>    dist    proportion   est    se   lcl   ucl    wt level est_method ci_method  
#>    <chr>        <dbl> <dbl> <dbl> <dbl> <dbl> <dbl> <dbl> <chr>      <chr>      
#>  1 average       0.01 0.267    NA    NA    NA     1  0.95 multi      weighted_s…
#>  2 average       0.02 0.531    NA    NA    NA     1  0.95 multi      weighted_s…
#>  3 average       0.03 0.783    NA    NA    NA     1  0.95 multi      weighted_s…
#>  4 average       0.04 1.02     NA    NA    NA     1  0.95 multi      weighted_s…
#>  5 average       0.05 1.26     NA    NA    NA     1  0.95 multi      weighted_s…
#>  6 average       0.06 1.48     NA    NA    NA     1  0.95 multi      weighted_s…
#>  7 average       0.07 1.71     NA    NA    NA     1  0.95 multi      weighted_s…
#>  8 average       0.08 1.93     NA    NA    NA     1  0.95 multi      weighted_s…
#>  9 average       0.09 2.16     NA    NA    NA     1  0.95 multi      weighted_s…
#> 10 average       0.1  2.38     NA    NA    NA     1  0.95 multi      weighted_s…
#> # ℹ 89 more rows
#> # ℹ 5 more variables: boot_method <chr>, nboot <int>, pboot <dbl>,
#> #   dists <list>, samples <list>
```
