Predict Hazard Concentrations of fitburrlioz Object — predict.fitburrlioz • ssdtools
…
    Details

    It is useful for plotting purposes.

    See also

    ssd_hc() and ssd_plot()

    Examples

fits <- ssd_fit_burrlioz(ssddata::ccme_boron)
predict(fits)
#> # A tibble: 99 × 11
#>    dist     proportion    est    se   lcl   ucl    wt method nboot pboot samples
#>    <chr>         <dbl>  <dbl> <dbl> <dbl> <dbl> <dbl> <chr>  <int> <dbl> <I<lis>
#>  1 invpare…       0.01 0.0228    NA    NA    NA     1 param…     0    NA <dbl>  
#>  2 invpare…       0.02 0.0772    NA    NA    NA     1 param…     0    NA <dbl>  
#>  3 invpare…       0.03 0.158     NA    NA    NA     1 param…     0    NA <dbl>  
#>  4 invpare…       0.04 0.261     NA    NA    NA     1 param…     0    NA <dbl>  
#>  5 invpare…       0.05 0.387     NA    NA    NA     1 param…     0    NA <dbl>  
#>  6 invpare…       0.06 0.533     NA    NA    NA     1 param…     0    NA <dbl>  
#>  7 invpare…       0.07 0.699     NA    NA    NA     1 param…     0    NA <dbl>  
#>  8 invpare…       0.08 0.885     NA    NA    NA     1 param…     0    NA <dbl>  
#>  9 invpare…       0.09 1.09      NA    NA    NA     1 param…     0    NA <dbl>  
#> 10 invpare…       0.1  1.31      NA    NA    NA     1 param…     0    NA <dbl>  
#> # ℹ 89 more rows
…
