Introduction to ssdtools • ssdtools
…
Fitting Distributions

The function ssd_fit_dists() inputs a data frame (with the concentration values, by default, in the Conc column) and fits one or more distributions. Here we fit the log-normal and weibull distributions to the Boron data.

library(ssdtools)
boron_data
#> # A tibble: 28 x 5
#>    Chemical Species                  Conc Group        Units
#>    <chr>    <chr>                   <dbl> <fct>        <chr>
#>  1 Boron    Oncorhynchus mykiss       2.1 Fish         mg/L 
#>  2 Boron    Ictalurus punctatus       2.4 Fish         mg/L 
#>  3 Boron    Micropterus salmoides     4.1 Fish         mg/L 
#>  4 Boron    Brachydanio rerio        10   Fish         mg/L 
#>  5 Boron    Carassius auratus        15.6 Fish         mg/L 
#>  6 Boron    Pimephales promelas      18.3 Fish         mg/L 
#>  7 Boron    Daphnia magna             6   Invertebrate mg/L 
#>  8 Boron    Opercularia bimarginata  10   Invertebrate mg/L 
#>  9 Boron    Ceriodaphnia dubia       13.4 Invertebrate mg/L 
#> 10 Boron    Entosiphon sulcatum      15   Invertebrate mg/L 
#> # ... with 18 more rows
…
Predictions

The predict function can be used to generate model-averaged (or individual) estimates across the full range of hazard concentrations.

boron_pred <- predict(boron_dists)

The resultant values provide valuable information

boron_pred
#> # A tibble: 99 x 5
#>    percent   est    se   lcl   ucl
#>      <int> <dbl> <dbl> <dbl> <dbl>
#>  1       1 0.304 0.335 0.129  1.07
#>  2       2 0.544 0.457 0.243  1.71
#>  3       3 0.780 0.557 0.364  2.26
#>  4       4 1.01  0.646 0.486  2.76
#>  5       5 1.25  0.729 0.615  3.25
#>  6       6 1.49  0.808 0.746  3.71
#>  7       7 1.73  0.884 0.883  4.16
#>  8       8 1.97  0.958 1.02   4.59
#>  9       9 2.21  1.03  1.17   5.03
#> 10      10 2.46  1.10  1.32   5.46
#> # ... with 89 more rows
…
