ssdtools User Manual • ssdtools
…
Getting Help

To get additional information on a particular function just type ? followed by the name of the function at the R console. For example ?ssd_gof brings up the R documentation for the ssdtools goodness of fit function.

Input Data

Once the ssdtools package has been loaded the next task is to input some data. An easy way to do this is to save the concentration data for a single chemical as a column called Conc in a comma separated file (.csv). Each row should be the sensitivity concentration for a separate species. If species and/or group information is available then this can be saved as Species and Group columns. The .csv file can then be read into R using

data <- read.csv(file = "path/to/file.csv")

For the purposes of this manual we use the CCME dataset for boron which is provided with the ssdtools package

data <- ssdtools::boron_data
print(data)
#> # A tibble: 28 x 5
#>    Chemical Species                  Conc Group        Units
#>    <chr>    <chr>                   <dbl> <fct>        <chr>
#>  1 Boron    Oncorhynchus mykiss       2.1 Fish         mg/L 
#>  2 Boron    Ictalurus punctatus       2.4 Fish         mg/L 
#>  3 Boron    Micropterus salmoides     4.1 Fish         mg/L 
#>  4 Boron    Brachydanio rerio        10   Fish         mg/L 
#>  5 Boron    Carassius auratus        15.6 Fish         mg/L 
#>  6 Boron    Pimephales promelas      18.3 Fish         mg/L 
#>  7 Boron    Daphnia magna             6   Invertebrate mg/L 
#>  8 Boron    Opercularia bimarginata  10   Invertebrate mg/L 
#>  9 Boron    Ceriodaphnia dubia       13.4 Invertebrate mg/L 
#> 10 Boron    Entosiphon sulcatum      15   Invertebrate mg/L 
#> # ... with 18 more rows
…
