…
``` r
data <- read_csv(file = "path/to/file.csv")
```

For the purposes of this manual we use the CCME dataset for boron from
the [`ssddata`](https://github.com/open-AIMS/ssddata) package.

``` r
ssddata::ccme_boron
#> # A tibble: 28 × 5
#>    Chemical Species                  Conc Group        Units
#>    <chr>    <chr>                   <dbl> <fct>        <chr>
#>  1 Boron    Oncorhynchus mykiss       2.1 Fish         mg/L 
#>  2 Boron    Ictalurus punctatus       2.4 Fish         mg/L 
#>  3 Boron    Micropterus salmoides     4.1 Fish         mg/L 
#>  4 Boron    Brachydanio rerio        10   Fish         mg/L 
#>  5 Boron    Carassius auratus        15.6 Fish         mg/L 
#>  6 Boron    Pimephales promelas      18.3 Fish         mg/L 
#>  7 Boron    Daphnia magna             6   Invertebrate mg/L 
#>  8 Boron    Opercularia bimarginata  10   Invertebrate mg/L 
#>  9 Boron    Ceriodaphnia dubia       13.4 Invertebrate mg/L 
#> 10 Boron    Entosiphon sulcatum      15   Invertebrate mg/L 
#> # ℹ 18 more rows
```
…
The resultant object is a data frame of the estimated concentration
(`est`) with standard error (`se`) and lower (`lcl`) and upper (`ucl`)
95% confidence limits (CLs) by percent of species affected (`percent`).
The object includes the number of bootstraps (`nboot`) data sets
generated as well as the proportion of the data sets that successfully
fitted (`pboot`).

``` r
boron_pred
#> # A tibble: 99 × 15
#>    dist    proportion   est    se    lcl   ucl    wt level est_method ci_method 
#>    <chr>        <dbl> <dbl> <dbl>  <dbl> <dbl> <dbl> <dbl> <chr>      <chr>     
#>  1 average       0.01 0.267 0.402 0.0419  1.53     1  0.95 multi      weighted_…
#>  2 average       0.02 0.531 0.518 0.110   2.03     1  0.95 multi      weighted_…
#>  3 average       0.03 0.783 0.615 0.198   2.50     1  0.95 multi      weighted_…
#>  4 average       0.04 1.02  0.701 0.300   2.89     1  0.95 multi      weighted_…
#>  5 average       0.05 1.26  0.782 0.407   3.29     1  0.95 multi      weighted_…
#>  6 average       0.06 1.48  0.859 0.520   3.72     1  0.95 multi      weighted_…
#>  7 average       0.07 1.71  0.934 0.645   4.16     1  0.95 multi      weighted_…
#>  8 average       0.08 1.93  1.01  0.769   4.58     1  0.95 multi      weighted_…
#>  9 average       0.09 2.16  1.08  0.896   4.95     1  0.95 multi      weighted_…
#> 10 average       0.1  2.38  1.15  1.03    5.33     1  0.95 multi      weighted_…
#> # ℹ 89 more rows
#> # ℹ 5 more variables: boot_method <chr>, nboot <dbl>, pboot <dbl>,
#> #   dists <list>, samples <list>
```
…
