Get Started with ssdtools • ssdtools
…
data <- read_csv(file = "path/to/file.csv")

For the purposes of this manual we use the CCME dataset for
boron.

ccme_boron <- ssddata::ccme_boron
print(ccme_boron)
#> # A tibble: 28 × 5
#>    Chemical Species                  Conc Group        Units
#>    <chr>    <chr>                   <dbl> <fct>        <chr>
#>  1 Boron    Oncorhynchus mykiss       2.1 Fish         mg/L 
#>  2 Boron    Ictalurus punctatus       2.4 Fish         mg/L 
#>  3 Boron    Micropterus salmoides     4.1 Fish         mg/L 
#>  4 Boron    Brachydanio rerio        10   Fish         mg/L 
#>  5 Boron    Carassius auratus        15.6 Fish         mg/L 
#>  6 Boron    Pimephales promelas      18.3 Fish         mg/L 
#>  7 Boron    Daphnia magna             6   Invertebrate mg/L 
#>  8 Boron    Opercularia bimarginata  10   Invertebrate mg/L 
#>  9 Boron    Ceriodaphnia dubia       13.4 Invertebrate mg/L 
#> 10 Boron    Entosiphon sulcatum      15   Invertebrate mg/L 
#> # ℹ 18 more rows
…
set.seed(99)
boron_pred <- predict(fits, ci = TRUE)

The resultant object is a data frame of the estimated concentration
(est) with standard error (se) and lower
(lcl) and upper (ucl) 95% confidence limits
(CLs) by percent of species affected (percent). The object
includes the number of bootstraps (nboot) data sets
generated as well as the proportion of the data sets that successfully
fitted (pboot). There is no requirement for the bootstrap
samples to converge.

boron_pred
#> # A tibble: 99 × 11
#>    dist    proportion   est    se    lcl   ucl    wt method  nboot pboot samples
#>    <chr>        <dbl> <dbl> <dbl>  <dbl> <dbl> <dbl> <chr>   <dbl> <dbl> <I<lis>
#>  1 average       0.01 0.267 0.401 0.0418  1.53     1 parame…  1000 0.999 <dbl>  
#>  2 average       0.02 0.531 0.517 0.110   2.03     1 parame…  1000 0.999 <dbl>  
#>  3 average       0.03 0.783 0.614 0.198   2.50     1 parame…  1000 0.999 <dbl>  
#>  4 average       0.04 1.02  0.700 0.300   2.90     1 parame…  1000 0.999 <dbl>  
#>  5 average       0.05 1.26  0.781 0.407   3.29     1 parame…  1000 0.999 <dbl>  
#>  6 average       0.06 1.48  0.859 0.520   3.72     1 parame…  1000 0.999 <dbl>  
#>  7 average       0.07 1.71  0.933 0.645   4.16     1 parame…  1000 0.999 <dbl>  
#>  8 average       0.08 1.93  1.01  0.768   4.58     1 parame…  1000 0.999 <dbl>  
#>  9 average       0.09 2.16  1.08  0.896   4.95     1 parame…  1000 0.999 <dbl>  
#> 10 average       0.1  2.38  1.15  1.03    5.39     1 parame…  1000 0.999 <dbl>  
#> # ℹ 89 more rows
…
